<svg xmlns="http://www.w3.org/2000/svg" width="8.62" height="6.428" viewBox="0 0 8.62 6.428">
  <path id="Icon_awesome-check" data-name="Icon awesome-check" d="M2.928,10.879l-2.8-2.8a.431.431,0,0,1,0-.61l.61-.61a.431.431,0,0,1,.61,0L3.233,8.746,7.275,4.7a.431.431,0,0,1,.61,0l.61.61a.431.431,0,0,1,0,.61L3.537,10.879A.431.431,0,0,1,2.928,10.879Z" transform="translate(0 -4.577)" fill="#0036be"/>
</svg>
