<svg id="Group_6" data-name="Group 6" xmlns="http://www.w3.org/2000/svg" width="44.367" height="57.1" viewBox="0 0 44.367 57.1">
  <path id="Path_18" data-name="Path 18" d="M333.329,10.93a5.465,5.465,0,1,0-5.441-5.465A5.458,5.458,0,0,0,333.329,10.93Zm0-8.1A2.65,2.65,0,1,1,330.7,5.465,2.643,2.643,0,0,1,333.329,2.826Z" transform="translate(-295.802)" fill="#fff"/>
  <path id="Path_19" data-name="Path 19" d="M59.729,393.7a5.465,5.465,0,1,0,5.441,5.465A5.458,5.458,0,0,0,59.729,393.7Zm0,8.115a2.65,2.65,0,1,1,2.627-2.65A2.643,2.643,0,0,1,59.729,401.815Z" transform="translate(-54.288 -347.53)" fill="#fff"/>
  <path id="Path_20" data-name="Path 20" d="M153.134,129.239a1.412,1.412,0,0,0,1,.41,1.432,1.432,0,0,0,1-.41,1.409,1.409,0,0,0,0-1.994l-2.932-2.932,2.932-2.932a1.41,1.41,0,0,0-1.994-1.994L150.2,122.32l-2.932-2.932a1.41,1.41,0,0,0-1.994,1.994l2.932,2.932-2.932,2.932a1.407,1.407,0,0,0,1,2.4,1.432,1.432,0,0,0,1-.41l2.932-2.932Z" transform="translate(-134.241 -105.023)" fill="#fff"/>
  <path id="Path_21" data-name="Path 21" d="M339.027,311.888a1.409,1.409,0,0,0-1.994,0L334.1,314.82l-2.932-2.932a1.41,1.41,0,0,0-1.994,1.994l2.932,2.932-2.932,2.932a1.407,1.407,0,0,0,1,2.4,1.433,1.433,0,0,0,1-.41l2.932-2.932,2.932,2.932a1.412,1.412,0,0,0,1,.41,1.432,1.432,0,0,0,1-.41,1.409,1.409,0,0,0,0-1.994l-2.932-2.932,2.932-2.932A1.409,1.409,0,0,0,339.027,311.888Z" transform="translate(-296.575 -274.948)" fill="#fff"/>
  <path id="Path_22" data-name="Path 22" d="M196.827,373.788a1.408,1.408,0,0,0-1.994,0L191.9,376.72l-2.932-2.932a1.41,1.41,0,1,0-1.994,1.994l2.932,2.932-2.932,2.932a1.407,1.407,0,0,0,1,2.4,1.432,1.432,0,0,0,1-.41l2.932-2.932,2.932,2.932a1.412,1.412,0,0,0,1,.41,1.432,1.432,0,0,0,1-.41,1.409,1.409,0,0,0,0-1.994l-2.932-2.932,2.932-2.932A1.43,1.43,0,0,0,196.827,373.788Z" transform="translate(-171.051 -329.588)" fill="#fff"/>
  <path id="Path_23" data-name="Path 23" d="M185.8,265.515a1.407,1.407,0,1,0-1.407-1.407A1.411,1.411,0,0,0,185.8,265.515Z" transform="translate(-169.131 -231.893)" fill="#fff"/>
  <path id="Path_24" data-name="Path 24" d="M102.7,302.718a1.426,1.426,0,0,0,.774.235,1.408,1.408,0,1,0-.774-.235Z" transform="translate(-96.458 -264.944)" fill="#fff"/>
  <path id="Path_25" data-name="Path 25" d="M138.68,269.877a1.4,1.4,0,0,0,.575,2.686,1.44,1.44,0,0,0,.575-.117,1.4,1.4,0,0,0,.715-1.853A1.417,1.417,0,0,0,138.68,269.877Z" transform="translate(-128.043 -238.119)" fill="#fff"/>
  <circle id="Ellipse_2" data-name="Ellipse 2" cx="1.407" cy="1.407" r="1.407" transform="translate(20.828 30.807)" fill="#fff"/>
  <path id="Path_26" data-name="Path 26" d="M90.1,347.815a1.4,1.4,0,1,0-1-.41A1.421,1.421,0,0,0,90.1,347.815Z" transform="translate(-84.654 -304.541)" fill="#fff"/>
  <path id="Path_27" data-name="Path 27" d="M296.855,126.13l-5.441-5.441a1.409,1.409,0,0,0-1.994,0l-5.441,5.441a1.41,1.41,0,0,0,1.994,1.994l3.037-3.037v3.635a8.286,8.286,0,0,1-8.315,8.244,1.407,1.407,0,0,0,0,2.815,11.109,11.109,0,0,0,11.129-11.059v-3.647l3.037,3.037a1.412,1.412,0,0,0,1,.41,1.432,1.432,0,0,0,1-.41A1.394,1.394,0,0,0,296.855,126.13Z" transform="translate(-252.902 -106.17)" fill="#fff"/>
</svg>
