<svg xmlns="http://www.w3.org/2000/svg" width="73.68" height="72.79" viewBox="0 0 73.68 72.79">
  <g id="Group_155" data-name="Group 155" transform="translate(-355.474 -3189.205)">
    <path id="Path_207" data-name="Path 207" d="M28,0,56,48H0Z" transform="translate(385.025 3189.205) rotate(38)" fill="#00f6fa"/>
    <path id="share" d="M38.412,40.255A9.733,9.733,0,0,0,37.1,41.9l-16.59-10.07a9.494,9.494,0,0,0,0-7.091l16.594-9.993a9.651,9.651,0,1,0-.866-1.72L19.625,23.027a9.6,9.6,0,1,0,0,10.505L36.236,43.616a9.593,9.593,0,1,0,2.175-3.361ZM45.2,1.92A7.681,7.681,0,1,1,37.52,9.6,7.689,7.689,0,0,1,45.2,1.92ZM11.6,35.96a7.681,7.681,0,1,1,7.68-7.681A7.689,7.689,0,0,1,11.6,35.96ZM50.631,52.474a7.68,7.68,0,1,1,2.25-5.431A7.689,7.689,0,0,1,50.631,52.474Z" transform="translate(374.248 3205.356)"/>
  </g>
</svg>
