<svg id="Group_45" data-name="Group 45" xmlns="http://www.w3.org/2000/svg" width="31.167" height="59.357" viewBox="0 0 31.167 59.357">
  <path id="Path_67" data-name="Path 67" d="M154.4,40.634a36.722,36.722,0,0,0-10.526-29.2,1.3,1.3,0,0,0-1.781,0,36.708,36.708,0,0,0-10.526,29.2,15.553,15.553,0,0,0,.133,21.331,1.266,1.266,0,0,0,2.132-1.187,14.2,14.2,0,0,1-.327-2.41,9.37,9.37,0,0,1,1.7-5.4,1.287,1.287,0,0,0,.606.157H150.16a1.287,1.287,0,0,0,.606-.157,9.37,9.37,0,0,1,1.7,5.4,17.391,17.391,0,0,1-.327,2.41,1.264,1.264,0,0,0,2.132,1.187,15.553,15.553,0,0,0,.133-21.331ZM142.977,14.143a33.705,33.705,0,0,1,5.524,8.043H137.466A33.074,33.074,0,0,1,142.977,14.143ZM131.107,56.659a13.089,13.089,0,0,1,.945-12.561c.012.1,1.332,5.148,1.841,6.444a11.766,11.766,0,0,0-2.786,6.117Zm18.218-6.069H136.63a34.186,34.186,0,0,1-.291-25.9h13.276A34.186,34.186,0,0,1,149.324,50.591Zm2.75-.048c.7-1.8,1.829-6.371,1.841-6.444a12.906,12.906,0,0,1,2.12,7.135,13.123,13.123,0,0,1-1.175,5.427A11.959,11.959,0,0,0,152.074,50.542Z" transform="translate(-127.4 -11.075)" fill="#fff"/>
  <path id="Path_68" data-name="Path 68" d="M204.76,375.6a1.259,1.259,0,0,0-1.26,1.26v6.335a1.26,1.26,0,1,0,2.52,0V376.86A1.259,1.259,0,0,0,204.76,375.6Z" transform="translate(-194.282 -331.445)" fill="#fff"/>
  <path id="Path_69" data-name="Path 69" d="M246.772,375.6a1.263,1.263,0,0,0-.9.375l-.012.012a1.266,1.266,0,0,0-.315.557,1.528,1.528,0,0,0-.048.339v12.658a1.2,1.2,0,0,0,.036.291,1.257,1.257,0,0,0,2.447,0,1.2,1.2,0,0,0,.036-.291V376.86a1.044,1.044,0,0,0-.048-.339A1.225,1.225,0,0,0,246.772,375.6Z" transform="translate(-231.195 -331.445)" fill="#fff"/>
  <path id="Path_70" data-name="Path 70" d="M288.96,375.6a1.259,1.259,0,0,0-1.26,1.26v6.335a1.26,1.26,0,1,0,2.519,0V376.86A1.244,1.244,0,0,0,288.96,375.6Z" transform="translate(-268.283 -331.445)" fill="#fff"/>
</svg>
