<svg xmlns="http://www.w3.org/2000/svg" width="64.056" height="54.509" viewBox="0 0 64.056 54.509">
  <path id="plane" d="M6.476,23.522a.95.95,0,0,0-.466,1.244l2.137,4.587a.948.948,0,0,0,1.253.466l16.144-7.541L24.083,37.568a.95.95,0,0,0,.313.8,4.145,4.145,0,0,0,2.508.95,3.053,3.053,0,0,0,.75-.095c1.311-.342,2.327-1.51,3.02-3.5L37.026,16.9l12.582-5.869c3.7-1.728,5.612-5.232,4.331-7.967A4.808,4.808,0,0,0,50.226.475a8.8,8.8,0,0,0-5.185.8L30.521,8.081,14.909,1.975c-1.966-.74-3.523-.721-4.615.067A3.873,3.873,0,0,0,8.879,5.109a.95.95,0,0,0,.408.751L19.8,13.086l-6.02,2.849-10.1-2.564a.95.95,0,0,0-1.054.456L.114,18.356A.95.95,0,0,0,.608,19.7l7.474,3.087ZM10.825,4.634a1.625,1.625,0,0,1,.57-1.026c.542-.39,1.529-.332,2.849.161l13.9,5.423L21.8,12.155ZM2.279,18.347l1.652-2.934,9.715,2.412a.951.951,0,0,0,.627-.057L45.849,3.02A6.941,6.941,0,0,1,49.9,2.374a2.974,2.974,0,0,1,2.317,1.5c.8,1.71-.77,4.207-3.419,5.442l-10.94,5.128.665-1.966a.965.965,0,1,0-1.833-.608L28.878,35.127c-.465,1.32-1.045,2.109-1.69,2.279a1.607,1.607,0,0,1-1.159-.218l1.9-19.943a.954.954,0,0,0-1.9-.18l-.294,3.048-16.3,7.6L8.1,24.861l2.677-1.253a.95.95,0,0,0,0-1.738Zm0,0" transform="translate(-0.121 17.335) rotate(-19)" fill="#fff"/>
</svg>
