<svg xmlns="http://www.w3.org/2000/svg" width="76.605" height="52.429" viewBox="0 0 76.605 52.429">
  <path id="Icon_awesome-laravel" data-name="Icon awesome-laravel" d="M76.3,27.088c-.5-.574-7.516-9.347-8.749-10.831s-1.843-1.221-2.6-1.113-9.634,1.6-10.664,1.771-1.676.586-1.041,1.472c.562.79,6.391,9.06,7.683,10.879L37.752,34.819,19.3,4c-.73-1.089-.886-1.472-2.561-1.388S2.266,3.75,1.357,3.834-.558,4.313.352,6.467,15.79,39.93,16.2,40.839a3.111,3.111,0,0,0,3.926,1.8c2.525-.61,11.286-2.9,16.073-4.153,2.525,4.584,7.683,13.871,8.641,15.2,1.269,1.783,2.154,1.484,4.105.886,1.532-.467,23.888-8.509,24.894-8.916s1.628-.706.945-1.723c-.5-.742-6.4-8.641-9.491-12.782,2.118-.562,9.646-2.561,10.448-2.789.945-.239,1.077-.694.562-1.269ZM34.149,35.7c-.275.06-13.261,3.172-13.955,3.327s-.694.084-.778-.156S3.978,6.958,3.762,6.563s-.2-.706,0-.706,12.267-1.077,12.686-1.1.383.072.539.335c0,0,17.019,29.37,17.306,29.884C34.6,35.489,34.425,35.645,34.149,35.7Zm36.622,6.87c.2.323.419.539-.239.766S48.547,50.773,48.14,50.952s-.742.239-1.269-.539S39.4,37.632,39.4,37.632L62,31.755c.562-.18.742-.3,1.1.263s7.468,10.233,7.672,10.556ZM72.22,26.525c-.5.108-8.808,2.166-8.808,2.166L56.625,19.38c-.191-.275-.347-.539.132-.6s8.186-1.46,8.533-1.532.646-.18,1.077.407,6.3,8.019,6.523,8.306-.168.443-.67.562Z" transform="translate(0.006 -2.602)" fill="#fff"/>
</svg>
